^C:\GFTE4\MY WORKS ON UE4 DEVELOPER ROUTE\MODULE_19\PRACTICE ON MODULE 19\X64\DEBUG\PRACTICE ON MODULE 19.OBJ
C:\GFTE4\MY WORKS ON UE4 DEVELOPER ROUTE\MODULE_19\PRACTICE ON MODULE 19\X64\DEBUG\PRACTICE ON MODULE 19.EXE
C:\GFTE4\MY WORKS ON UE4 DEVELOPER ROUTE\MODULE_19\PRACTICE ON MODULE 19\X64\DEBUG\PRACTICE ON MODULE 19.ILK
C:\GFTE4\MY WORKS ON UE4 DEVELOPER ROUTE\MODULE_19\PRACTICE ON MODULE 19\X64\DEBUG\PRACTICE ON MODULE 19.PDB
